%YAML 1.1
%TAG !u! tag:unity3d.com,2011:
--- !u!114 &11400000
MonoBehaviour:
  m_ObjectHideFlags: 0
  m_CorrespondingSourceObject: {fileID: 0}
  m_PrefabInstance: {fileID: 0}
  m_PrefabAsset: {fileID: 0}
  m_GameObject: {fileID: 0}
  m_Enabled: 1
  m_EditorHideFlags: 0
  m_Script: {fileID: 11500000, guid: 9d1514134bc4fbd41bb739b1b9a49231, type: 3}
  m_Name: Platforms
  m_EditorClassIdentifier: 
  m_DefaultSprite: {fileID: 7953296568139915108, guid: a3d65814cc3e68545ab6a6b843a73908, type: 3}
  m_DefaultColliderType: 1
  m_TilingRules:
  - m_Neighbors: 0000000001000000000000000100000001000000000000000100000002000000
    m_Sprites:
    - {fileID: -3542295685721467227, guid: a3d65814cc3e68545ab6a6b843a73908, type: 3}
    m_AnimationSpeed: 1
    m_PerlinScale: 0.5
    m_RuleTransform: 1
    m_Output: 0
    m_ColliderType: 1
    m_RandomTransform: 0
  - m_Neighbors: 0100000001000000010000000100000001000000010000000100000001000000
    m_Sprites:
    - {fileID: -7832389824997676707, guid: a3d65814cc3e68545ab6a6b843a73908, type: 3}
    m_AnimationSpeed: 1
    m_PerlinScale: 0.5
    m_RuleTransform: 0
    m_Output: 0
    m_ColliderType: 1
    m_RandomTransform: 0
  - m_Neighbors: 0000000002000000000000000200000002000000000000000200000000000000
    m_Sprites:
    - {fileID: 7323906098350758705, guid: a3d65814cc3e68545ab6a6b843a73908, type: 3}
    m_AnimationSpeed: 1
    m_PerlinScale: 0.5
    m_RuleTransform: 0
    m_Output: 0
    m_ColliderType: 1
    m_RandomTransform: 0
  - m_Neighbors: 0000000002000000000000000200000001000000000000000100000000000000
    m_Sprites:
    - {fileID: -2464266514383608195, guid: a3d65814cc3e68545ab6a6b843a73908, type: 3}
    m_AnimationSpeed: 1
    m_PerlinScale: 0.5
    m_RuleTransform: 2
    m_Output: 0
    m_ColliderType: 1
    m_RandomTransform: 0
  - m_Neighbors: 0000000001000000000000000200000001000000000000000200000000000000
    m_Sprites:
    - {fileID: -3503154757471595975, guid: a3d65814cc3e68545ab6a6b843a73908, type: 3}
    m_AnimationSpeed: 1
    m_PerlinScale: 0.5
    m_RuleTransform: 2
    m_Output: 0
    m_ColliderType: 1
    m_RandomTransform: 0
  - m_Neighbors: 0000000002000000000000000100000001000000000000000100000000000000
    m_Sprites:
    - {fileID: 7953296568139915108, guid: a3d65814cc3e68545ab6a6b843a73908, type: 3}
    m_AnimationSpeed: 1
    m_PerlinScale: 0.5
    m_RuleTransform: 0
    m_Output: 0
    m_ColliderType: 1
    m_RandomTransform: 0
  - m_Neighbors: 0000000001000000000000000100000001000000000000000200000000000000
    m_Sprites:
    - {fileID: -1667590691872097069, guid: a3d65814cc3e68545ab6a6b843a73908, type: 3}
    m_AnimationSpeed: 1
    m_PerlinScale: 0.5
    m_RuleTransform: 0
    m_Output: 0
    m_ColliderType: 1
    m_RandomTransform: 0
  - m_Neighbors: 0000000001000000000000000200000001000000000000000100000000000000
    m_Sprites:
    - {fileID: -4977721373819348528, guid: a3d65814cc3e68545ab6a6b843a73908, type: 3}
    m_AnimationSpeed: 1
    m_PerlinScale: 0.5
    m_RuleTransform: 2
    m_Output: 0
    m_ColliderType: 1
    m_RandomTransform: 0
  - m_Neighbors: 0000000002000000000000000200000002000000000000000100000000000000
    m_Sprites:
    - {fileID: -5972448355421142556, guid: a3d65814cc3e68545ab6a6b843a73908, type: 3}
    m_AnimationSpeed: 1
    m_PerlinScale: 0.5
    m_RuleTransform: 0
    m_Output: 0
    m_ColliderType: 1
    m_RandomTransform: 0
  - m_Neighbors: 0000000001000000000000000200000002000000000000000100000000000000
    m_Sprites:
    - {fileID: -2755257858965140955, guid: a3d65814cc3e68545ab6a6b843a73908, type: 3}
    m_AnimationSpeed: 1
    m_PerlinScale: 0.5
    m_RuleTransform: 0
    m_Output: 0
    m_ColliderType: 1
    m_RandomTransform: 0
  - m_Neighbors: 0000000001000000000000000200000002000000000000000200000000000000
    m_Sprites:
    - {fileID: 2766323726693326924, guid: a3d65814cc3e68545ab6a6b843a73908, type: 3}
    m_AnimationSpeed: 1
    m_PerlinScale: 0.5
    m_RuleTransform: 0
    m_Output: 0
    m_ColliderType: 1
    m_RandomTransform: 0
  - m_Neighbors: 0000000002000000000000000200000001000000000000000200000000000000
    m_Sprites:
    - {fileID: -5134054752372163016, guid: a3d65814cc3e68545ab6a6b843a73908, type: 3}
    m_AnimationSpeed: 1
    m_PerlinScale: 0.5
    m_RuleTransform: 2
    m_Output: 0
    m_ColliderType: 1
    m_RandomTransform: 0
  - m_Neighbors: 0000000002000000000000000100000001000000000000000200000000000000
    m_Sprites:
    - {fileID: 6192572789505845407, guid: a3d65814cc3e68545ab6a6b843a73908, type: 3}
    m_AnimationSpeed: 1
    m_PerlinScale: 0.5
    m_RuleTransform: 0
    m_Output: 0
    m_ColliderType: 1
    m_RandomTransform: 0
