%YAML 1.1
%TAG !u! tag:unity3d.com,2011:
--- !u!1 &166341173157435468
GameObject:
  m_ObjectHideFlags: 0
  m_CorrespondingSourceObject: {fileID: 0}
  m_PrefabInstance: {fileID: 0}
  m_PrefabAsset: {fileID: 0}
  serializedVersion: 6
  m_Component:
  - component: {fileID: 7423773496893228325}
  - component: {fileID: 7696525323959449708}
  - component: {fileID: 4640444208399360175}
  m_Layer: 0
  m_Name: Layer1
  m_TagString: Untagged
  m_Icon: {fileID: 0}
  m_NavMeshLayer: 0
  m_StaticEditorFlags: 0
  m_IsActive: 1
--- !u!4 &7423773496893228325
Transform:
  m_ObjectHideFlags: 0
  m_CorrespondingSourceObject: {fileID: 0}
  m_PrefabInstance: {fileID: 0}
  m_PrefabAsset: {fileID: 0}
  m_GameObject: {fileID: 166341173157435468}
  m_LocalRotation: {x: -0, y: -0, z: -0, w: 1}
  m_LocalPosition: {x: 0, y: 0, z: 0}
  m_LocalScale: {x: 1, y: 1, z: 1}
  m_Children: []
  m_Father: {fileID: 4889358044749556022}
  m_RootOrder: 0
  m_LocalEulerAnglesHint: {x: 0, y: 0, z: 0}
--- !u!1839735485 &7696525323959449708
Tilemap:
  m_ObjectHideFlags: 0
  m_CorrespondingSourceObject: {fileID: 0}
  m_PrefabInstance: {fileID: 0}
  m_PrefabAsset: {fileID: 0}
  m_GameObject: {fileID: 166341173157435468}
  m_Enabled: 1
  m_Tiles:
  - first: {x: -2, y: -9, z: 0}
    second:
      serializedVersion: 2
      m_TileIndex: 41
      m_TileSpriteIndex: 46
      m_TileMatrixIndex: 0
      m_TileColorIndex: 0
      m_TileObjectToInstantiateIndex: 65535
      dummyAlignment: 0
      m_AllTileFlags: 1073741825
  - first: {x: -1, y: -9, z: 0}
    second:
      serializedVersion: 2
      m_TileIndex: 42
      m_TileSpriteIndex: 42
      m_TileMatrixIndex: 0
      m_TileColorIndex: 0
      m_TileObjectToInstantiateIndex: 65535
      dummyAlignment: 0
      m_AllTileFlags: 1073741825
  - first: {x: 0, y: -9, z: 0}
    second:
      serializedVersion: 2
      m_TileIndex: 43
      m_TileSpriteIndex: 43
      m_TileMatrixIndex: 0
      m_TileColorIndex: 0
      m_TileObjectToInstantiateIndex: 65535
      dummyAlignment: 0
      m_AllTileFlags: 1073741825
  - first: {x: 1, y: -9, z: 0}
    second:
      serializedVersion: 2
      m_TileIndex: 44
      m_TileSpriteIndex: 44
      m_TileMatrixIndex: 0
      m_TileColorIndex: 0
      m_TileObjectToInstantiateIndex: 65535
      dummyAlignment: 0
      m_AllTileFlags: 1073741825
  - first: {x: 2, y: -9, z: 0}
    second:
      serializedVersion: 2
      m_TileIndex: 45
      m_TileSpriteIndex: 45
      m_TileMatrixIndex: 0
      m_TileColorIndex: 0
      m_TileObjectToInstantiateIndex: 65535
      dummyAlignment: 0
      m_AllTileFlags: 1073741825
  - first: {x: 4, y: -9, z: 0}
    second:
      serializedVersion: 2
      m_TileIndex: 24
      m_TileSpriteIndex: 41
      m_TileMatrixIndex: 0
      m_TileColorIndex: 0
      m_TileObjectToInstantiateIndex: 65535
      dummyAlignment: 0
      m_AllTileFlags: 1073741825
  - first: {x: 5, y: -9, z: 0}
    second:
      serializedVersion: 2
      m_TileIndex: 23
      m_TileSpriteIndex: 23
      m_TileMatrixIndex: 0
      m_TileColorIndex: 0
      m_TileObjectToInstantiateIndex: 65535
      dummyAlignment: 0
      m_AllTileFlags: 1073741825
  - first: {x: 6, y: -9, z: 0}
    second:
      serializedVersion: 2
      m_TileIndex: 22
      m_TileSpriteIndex: 17
      m_TileMatrixIndex: 0
      m_TileColorIndex: 0
      m_TileObjectToInstantiateIndex: 65535
      dummyAlignment: 0
      m_AllTileFlags: 1073741825
  - first: {x: -2, y: -8, z: 0}
    second:
      serializedVersion: 2
      m_TileIndex: 36
      m_TileSpriteIndex: 36
      m_TileMatrixIndex: 0
      m_TileColorIndex: 0
      m_TileObjectToInstantiateIndex: 65535
      dummyAlignment: 0
      m_AllTileFlags: 1073741825
  - first: {x: -1, y: -8, z: 0}
    second:
      serializedVersion: 2
      m_TileIndex: 37
      m_TileSpriteIndex: 37
      m_TileMatrixIndex: 0
      m_TileColorIndex: 0
      m_TileObjectToInstantiateIndex: 65535
      dummyAlignment: 0
      m_AllTileFlags: 1073741825
  - first: {x: 0, y: -8, z: 0}
    second:
      serializedVersion: 2
      m_TileIndex: 38
      m_TileSpriteIndex: 38
      m_TileMatrixIndex: 0
      m_TileColorIndex: 0
      m_TileObjectToInstantiateIndex: 65535
      dummyAlignment: 0
      m_AllTileFlags: 1073741825
  - first: {x: 1, y: -8, z: 0}
    second:
      serializedVersion: 2
      m_TileIndex: 39
      m_TileSpriteIndex: 39
      m_TileMatrixIndex: 0
      m_TileColorIndex: 0
      m_TileObjectToInstantiateIndex: 65535
      dummyAlignment: 0
      m_AllTileFlags: 1073741825
  - first: {x: 2, y: -8, z: 0}
    second:
      serializedVersion: 2
      m_TileIndex: 40
      m_TileSpriteIndex: 40
      m_TileMatrixIndex: 0
      m_TileColorIndex: 0
      m_TileObjectToInstantiateIndex: 65535
      dummyAlignment: 0
      m_AllTileFlags: 1073741825
  - first: {x: 1, y: -7, z: 0}
    second:
      serializedVersion: 2
      m_TileIndex: 34
      m_TileSpriteIndex: 34
      m_TileMatrixIndex: 0
      m_TileColorIndex: 0
      m_TileObjectToInstantiateIndex: 65535
      dummyAlignment: 0
      m_AllTileFlags: 1073741825
  - first: {x: 2, y: -7, z: 0}
    second:
      serializedVersion: 2
      m_TileIndex: 35
      m_TileSpriteIndex: 35
      m_TileMatrixIndex: 0
      m_TileColorIndex: 0
      m_TileObjectToInstantiateIndex: 65535
      dummyAlignment: 0
      m_AllTileFlags: 1073741825
  - first: {x: 4, y: -7, z: 0}
    second:
      serializedVersion: 2
      m_TileIndex: 31
      m_TileSpriteIndex: 33
      m_TileMatrixIndex: 0
      m_TileColorIndex: 0
      m_TileObjectToInstantiateIndex: 65535
      dummyAlignment: 0
      m_AllTileFlags: 1073741825
  - first: {x: 5, y: -7, z: 0}
    second:
      serializedVersion: 2
      m_TileIndex: 33
      m_TileSpriteIndex: 32
      m_TileMatrixIndex: 0
      m_TileColorIndex: 0
      m_TileObjectToInstantiateIndex: 65535
      dummyAlignment: 0
      m_AllTileFlags: 1073741825
  - first: {x: 6, y: -7, z: 0}
    second:
      serializedVersion: 2
      m_TileIndex: 32
      m_TileSpriteIndex: 24
      m_TileMatrixIndex: 0
      m_TileColorIndex: 0
      m_TileObjectToInstantiateIndex: 65535
      dummyAlignment: 0
      m_AllTileFlags: 1073741825
  - first: {x: 7, y: -7, z: 0}
    second:
      serializedVersion: 2
      m_TileIndex: 31
      m_TileSpriteIndex: 33
      m_TileMatrixIndex: 1
      m_TileColorIndex: 0
      m_TileObjectToInstantiateIndex: 65535
      dummyAlignment: 0
      m_AllTileFlags: 1073741825
  - first: {x: 1, y: -6, z: 0}
    second:
      serializedVersion: 2
      m_TileIndex: 29
      m_TileSpriteIndex: 31
      m_TileMatrixIndex: 0
      m_TileColorIndex: 0
      m_TileObjectToInstantiateIndex: 65535
      dummyAlignment: 0
      m_AllTileFlags: 1073741825
  - first: {x: 2, y: -6, z: 0}
    second:
      serializedVersion: 2
      m_TileIndex: 30
      m_TileSpriteIndex: 30
      m_TileMatrixIndex: 0
      m_TileColorIndex: 0
      m_TileObjectToInstantiateIndex: 65535
      dummyAlignment: 0
      m_AllTileFlags: 1073741825
  - first: {x: 4, y: -6, z: 0}
    second:
      serializedVersion: 2
      m_TileIndex: 26
      m_TileSpriteIndex: 22
      m_TileMatrixIndex: 0
      m_TileColorIndex: 0
      m_TileObjectToInstantiateIndex: 65535
      dummyAlignment: 0
      m_AllTileFlags: 1073741825
  - first: {x: 7, y: -6, z: 0}
    second:
      serializedVersion: 2
      m_TileIndex: 26
      m_TileSpriteIndex: 22
      m_TileMatrixIndex: 1
      m_TileColorIndex: 0
      m_TileObjectToInstantiateIndex: 65535
      dummyAlignment: 0
      m_AllTileFlags: 1073741825
  - first: {x: 2, y: -5, z: 0}
    second:
      serializedVersion: 2
      m_TileIndex: 25
      m_TileSpriteIndex: 27
      m_TileMatrixIndex: 0
      m_TileColorIndex: 0
      m_TileObjectToInstantiateIndex: 65535
      dummyAlignment: 0
      m_AllTileFlags: 1073741825
  - first: {x: 4, y: -5, z: 0}
    second:
      serializedVersion: 2
      m_TileIndex: 21
      m_TileSpriteIndex: 21
      m_TileMatrixIndex: 0
      m_TileColorIndex: 0
      m_TileObjectToInstantiateIndex: 65535
      dummyAlignment: 0
      m_AllTileFlags: 1073741825
  - first: {x: 5, y: -5, z: 0}
    second:
      serializedVersion: 2
      m_TileIndex: 28
      m_TileSpriteIndex: 29
      m_TileMatrixIndex: 0
      m_TileColorIndex: 0
      m_TileObjectToInstantiateIndex: 65535
      dummyAlignment: 0
      m_AllTileFlags: 1073741825
  - first: {x: 6, y: -5, z: 0}
    second:
      serializedVersion: 2
      m_TileIndex: 27
      m_TileSpriteIndex: 28
      m_TileMatrixIndex: 0
      m_TileColorIndex: 0
      m_TileObjectToInstantiateIndex: 65535
      dummyAlignment: 0
      m_AllTileFlags: 1073741825
  - first: {x: 7, y: -5, z: 0}
    second:
      serializedVersion: 2
      m_TileIndex: 21
      m_TileSpriteIndex: 21
      m_TileMatrixIndex: 1
      m_TileColorIndex: 0
      m_TileObjectToInstantiateIndex: 65535
      dummyAlignment: 0
      m_AllTileFlags: 1073741825
  - first: {x: -1, y: -4, z: 0}
    second:
      serializedVersion: 2
      m_TileIndex: 46
      m_TileSpriteIndex: 0
      m_TileMatrixIndex: 0
      m_TileColorIndex: 0
      m_TileObjectToInstantiateIndex: 65535
      dummyAlignment: 0
      m_AllTileFlags: 1073741825
  - first: {x: 1, y: -4, z: 0}
    second:
      serializedVersion: 2
      m_TileIndex: 19
      m_TileSpriteIndex: 19
      m_TileMatrixIndex: 0
      m_TileColorIndex: 0
      m_TileObjectToInstantiateIndex: 65535
      dummyAlignment: 0
      m_AllTileFlags: 1073741825
  - first: {x: 2, y: -4, z: 0}
    second:
      serializedVersion: 2
      m_TileIndex: 20
      m_TileSpriteIndex: 20
      m_TileMatrixIndex: 0
      m_TileColorIndex: 0
      m_TileObjectToInstantiateIndex: 65535
      dummyAlignment: 0
      m_AllTileFlags: 1073741825
  - first: {x: 4, y: -4, z: 0}
    second:
      serializedVersion: 2
      m_TileIndex: 18
      m_TileSpriteIndex: 18
      m_TileMatrixIndex: 0
      m_TileColorIndex: 0
      m_TileObjectToInstantiateIndex: 65535
      dummyAlignment: 0
      m_AllTileFlags: 1073741825
  - first: {x: 5, y: -4, z: 0}
    second:
      serializedVersion: 2
      m_TileIndex: 17
      m_TileSpriteIndex: 26
      m_TileMatrixIndex: 0
      m_TileColorIndex: 0
      m_TileObjectToInstantiateIndex: 65535
      dummyAlignment: 0
      m_AllTileFlags: 1073741825
  - first: {x: 6, y: -4, z: 0}
    second:
      serializedVersion: 2
      m_TileIndex: 16
      m_TileSpriteIndex: 25
      m_TileMatrixIndex: 0
      m_TileColorIndex: 0
      m_TileObjectToInstantiateIndex: 65535
      dummyAlignment: 0
      m_AllTileFlags: 1073741825
  - first: {x: 7, y: -4, z: 0}
    second:
      serializedVersion: 2
      m_TileIndex: 18
      m_TileSpriteIndex: 18
      m_TileMatrixIndex: 1
      m_TileColorIndex: 0
      m_TileObjectToInstantiateIndex: 65535
      dummyAlignment: 0
      m_AllTileFlags: 1073741825
  - first: {x: -2, y: -2, z: 0}
    second:
      serializedVersion: 2
      m_TileIndex: 3
      m_TileSpriteIndex: 16
      m_TileMatrixIndex: 0
      m_TileColorIndex: 0
      m_TileObjectToInstantiateIndex: 65535
      dummyAlignment: 0
      m_AllTileFlags: 1073741825
  - first: {x: -1, y: -2, z: 0}
    second:
      serializedVersion: 2
      m_TileIndex: 2
      m_TileSpriteIndex: 3
      m_TileMatrixIndex: 0
      m_TileColorIndex: 0
      m_TileObjectToInstantiateIndex: 65535
      dummyAlignment: 0
      m_AllTileFlags: 1073741825
  - first: {x: 0, y: -2, z: 0}
    second:
      serializedVersion: 2
      m_TileIndex: 1
      m_TileSpriteIndex: 2
      m_TileMatrixIndex: 0
      m_TileColorIndex: 0
      m_TileObjectToInstantiateIndex: 65535
      dummyAlignment: 0
      m_AllTileFlags: 1073741825
  - first: {x: 1, y: -2, z: 0}
    second:
      serializedVersion: 2
      m_TileIndex: 0
      m_TileSpriteIndex: 1
      m_TileMatrixIndex: 0
      m_TileColorIndex: 0
      m_TileObjectToInstantiateIndex: 65535
      dummyAlignment: 0
      m_AllTileFlags: 1073741825
  - first: {x: -2, y: -1, z: 0}
    second:
      serializedVersion: 2
      m_TileIndex: 7
      m_TileSpriteIndex: 7
      m_TileMatrixIndex: 0
      m_TileColorIndex: 0
      m_TileObjectToInstantiateIndex: 65535
      dummyAlignment: 0
      m_AllTileFlags: 1073741825
  - first: {x: -1, y: -1, z: 0}
    second:
      serializedVersion: 2
      m_TileIndex: 6
      m_TileSpriteIndex: 6
      m_TileMatrixIndex: 0
      m_TileColorIndex: 0
      m_TileObjectToInstantiateIndex: 65535
      dummyAlignment: 0
      m_AllTileFlags: 1073741825
  - first: {x: 0, y: -1, z: 0}
    second:
      serializedVersion: 2
      m_TileIndex: 5
      m_TileSpriteIndex: 5
      m_TileMatrixIndex: 0
      m_TileColorIndex: 0
      m_TileObjectToInstantiateIndex: 65535
      dummyAlignment: 0
      m_AllTileFlags: 1073741825
  - first: {x: 1, y: -1, z: 0}
    second:
      serializedVersion: 2
      m_TileIndex: 4
      m_TileSpriteIndex: 4
      m_TileMatrixIndex: 0
      m_TileColorIndex: 0
      m_TileObjectToInstantiateIndex: 65535
      dummyAlignment: 0
      m_AllTileFlags: 1073741825
  - first: {x: 4, y: -1, z: 0}
    second:
      serializedVersion: 2
      m_TileIndex: 47
      m_TileSpriteIndex: 19
      m_TileMatrixIndex: 0
      m_TileColorIndex: 0
      m_TileObjectToInstantiateIndex: 65535
      dummyAlignment: 0
      m_AllTileFlags: 1073741826
  - first: {x: -2, y: 0, z: 0}
    second:
      serializedVersion: 2
      m_TileIndex: 11
      m_TileSpriteIndex: 11
      m_TileMatrixIndex: 0
      m_TileColorIndex: 0
      m_TileObjectToInstantiateIndex: 65535
      dummyAlignment: 0
      m_AllTileFlags: 1073741825
  - first: {x: -1, y: 0, z: 0}
    second:
      serializedVersion: 2
      m_TileIndex: 10
      m_TileSpriteIndex: 10
      m_TileMatrixIndex: 0
      m_TileColorIndex: 0
      m_TileObjectToInstantiateIndex: 65535
      dummyAlignment: 0
      m_AllTileFlags: 1073741825
  - first: {x: 0, y: 0, z: 0}
    second:
      serializedVersion: 2
      m_TileIndex: 9
      m_TileSpriteIndex: 9
      m_TileMatrixIndex: 0
      m_TileColorIndex: 0
      m_TileObjectToInstantiateIndex: 65535
      dummyAlignment: 0
      m_AllTileFlags: 1073741825
  - first: {x: 1, y: 0, z: 0}
    second:
      serializedVersion: 2
      m_TileIndex: 8
      m_TileSpriteIndex: 8
      m_TileMatrixIndex: 0
      m_TileColorIndex: 0
      m_TileObjectToInstantiateIndex: 65535
      dummyAlignment: 0
      m_AllTileFlags: 1073741825
  - first: {x: -2, y: 1, z: 0}
    second:
      serializedVersion: 2
      m_TileIndex: 15
      m_TileSpriteIndex: 15
      m_TileMatrixIndex: 0
      m_TileColorIndex: 0
      m_TileObjectToInstantiateIndex: 65535
      dummyAlignment: 0
      m_AllTileFlags: 1073741825
  - first: {x: -1, y: 1, z: 0}
    second:
      serializedVersion: 2
      m_TileIndex: 14
      m_TileSpriteIndex: 14
      m_TileMatrixIndex: 0
      m_TileColorIndex: 0
      m_TileObjectToInstantiateIndex: 65535
      dummyAlignment: 0
      m_AllTileFlags: 1073741825
  - first: {x: 0, y: 1, z: 0}
    second:
      serializedVersion: 2
      m_TileIndex: 13
      m_TileSpriteIndex: 13
      m_TileMatrixIndex: 0
      m_TileColorIndex: 0
      m_TileObjectToInstantiateIndex: 65535
      dummyAlignment: 0
      m_AllTileFlags: 1073741825
  - first: {x: 1, y: 1, z: 0}
    second:
      serializedVersion: 2
      m_TileIndex: 12
      m_TileSpriteIndex: 12
      m_TileMatrixIndex: 0
      m_TileColorIndex: 0
      m_TileObjectToInstantiateIndex: 65535
      dummyAlignment: 0
      m_AllTileFlags: 1073741825
  - first: {x: 4, y: 1, z: 0}
    second:
      serializedVersion: 2
      m_TileIndex: 48
      m_TileSpriteIndex: 47
      m_TileMatrixIndex: 0
      m_TileColorIndex: 0
      m_TileObjectToInstantiateIndex: 65535
      dummyAlignment: 0
      m_AllTileFlags: 1073741825
  m_AnimatedTiles: {}
  m_TileAssetArray:
  - m_RefCount: 1
    m_Data: {fileID: 11400000, guid: 9886b72d6fba4114b8a59daf6ebb5bb1, type: 2}
  - m_RefCount: 1
    m_Data: {fileID: 11400000, guid: 3029bdcca251f6a479fab70a16a6cd7e, type: 2}
  - m_RefCount: 1
    m_Data: {fileID: 11400000, guid: a46ddba7cbc741b48a28e16637351437, type: 2}
  - m_RefCount: 1
    m_Data: {fileID: 11400000, guid: b3bde303fb50b914bb6a804287eb4613, type: 2}
  - m_RefCount: 1
    m_Data: {fileID: 11400000, guid: 8f0bb97e6100cb04c943e7567830fa7d, type: 2}
  - m_RefCount: 1
    m_Data: {fileID: 11400000, guid: 4337bbc815ab9a74faf74322704a674d, type: 2}
  - m_RefCount: 1
    m_Data: {fileID: 11400000, guid: 304a18b2fd0fbbd41b1e6884d8bc121c, type: 2}
  - m_RefCount: 1
    m_Data: {fileID: 11400000, guid: c955c340c730b9f4d9359ec29cb9f640, type: 2}
  - m_RefCount: 1
    m_Data: {fileID: 11400000, guid: 1caab073be8b2d24bb561bd4bd7bb357, type: 2}
  - m_RefCount: 1
    m_Data: {fileID: 11400000, guid: 6fb93df61e5db6d47a77a3b12a6c6f77, type: 2}
  - m_RefCount: 1
    m_Data: {fileID: 11400000, guid: 63424bacbf62a684880c61d9b1575d89, type: 2}
  - m_RefCount: 1
    m_Data: {fileID: 11400000, guid: 8e48bd83f4ba46d4f93719b43e87a003, type: 2}
  - m_RefCount: 1
    m_Data: {fileID: 11400000, guid: 940f3348ca933aa44a0fc1157c845b1a, type: 2}
  - m_RefCount: 1
    m_Data: {fileID: 11400000, guid: 808069710973ca44ca906c913a89a5d0, type: 2}
  - m_RefCount: 1
    m_Data: {fileID: 11400000, guid: cd6dc9b4ded20f045afefc2800ea1ebc, type: 2}
  - m_RefCount: 1
    m_Data: {fileID: 11400000, guid: 782b5279a62e4904d90195df6e82690d, type: 2}
  - m_RefCount: 1
    m_Data: {fileID: 11400000, guid: efc45d22acff48a4db7fd12d88a8d775, type: 2}
  - m_RefCount: 1
    m_Data: {fileID: 11400000, guid: 20c60b87741cfa94baf1c9ce943e4a99, type: 2}
  - m_RefCount: 2
    m_Data: {fileID: 11400000, guid: 57397b473cc56fe45b8fa5a6abe1d672, type: 2}
  - m_RefCount: 1
    m_Data: {fileID: 11400000, guid: bc916db13ff212e44851fa94c3da1b04, type: 2}
  - m_RefCount: 1
    m_Data: {fileID: 11400000, guid: cf0469bcc9b3afe489b72284ee49d006, type: 2}
  - m_RefCount: 2
    m_Data: {fileID: 11400000, guid: e1a3650e90c8e744eb50fb4c25c5f2f4, type: 2}
  - m_RefCount: 1
    m_Data: {fileID: 11400000, guid: d061097f5d8ffd2418a1ac728264b9fa, type: 2}
  - m_RefCount: 1
    m_Data: {fileID: 11400000, guid: 9b8a63a0c1a730746b048859196f1f5d, type: 2}
  - m_RefCount: 1
    m_Data: {fileID: 11400000, guid: b6dab44c7d6006c45baf23053ed17d07, type: 2}
  - m_RefCount: 1
    m_Data: {fileID: 11400000, guid: b12a8291fe438d74a80438892cadea0a, type: 2}
  - m_RefCount: 2
    m_Data: {fileID: 11400000, guid: 180e7ba6765489d4ab1bd373a6c7e6b1, type: 2}
  - m_RefCount: 1
    m_Data: {fileID: 11400000, guid: e569a1ae0c2fccf4b9bda8f873a70fd5, type: 2}
  - m_RefCount: 1
    m_Data: {fileID: 11400000, guid: 060bbbe7b7c1cc14fa03032150a21e57, type: 2}
  - m_RefCount: 1
    m_Data: {fileID: 11400000, guid: 320f8e5eb3bc2d14c9538ea629d6972e, type: 2}
  - m_RefCount: 1
    m_Data: {fileID: 11400000, guid: a57b91a728b8197438b71de96002347c, type: 2}
  - m_RefCount: 2
    m_Data: {fileID: 11400000, guid: 2d67a4b41b5451e4fa8cf747d45993e0, type: 2}
  - m_RefCount: 1
    m_Data: {fileID: 11400000, guid: 2ae6992dcfd4db2408d288b83460dcf4, type: 2}
  - m_RefCount: 1
    m_Data: {fileID: 11400000, guid: ae6c8b3101f4f3b4e87f620757b5320b, type: 2}
  - m_RefCount: 1
    m_Data: {fileID: 11400000, guid: 82605fd00d42b41488810462e7363b99, type: 2}
  - m_RefCount: 1
    m_Data: {fileID: 11400000, guid: 1d0c85b2f8e9c4d4d8bfd61fa4cb58e6, type: 2}
  - m_RefCount: 1
    m_Data: {fileID: 11400000, guid: de46ea424c66c8a49a7b48ee14663bfd, type: 2}
  - m_RefCount: 1
    m_Data: {fileID: 11400000, guid: 988282d26ecec774e8410025b7a277b2, type: 2}
  - m_RefCount: 1
    m_Data: {fileID: 11400000, guid: dee2ecb091790bc4592d6afcaccd85f3, type: 2}
  - m_RefCount: 1
    m_Data: {fileID: 11400000, guid: 0046f4f510fe96842bf2af5030559d00, type: 2}
  - m_RefCount: 1
    m_Data: {fileID: 11400000, guid: 89b02a50bb38952459d07707bff51fe9, type: 2}
  - m_RefCount: 1
    m_Data: {fileID: 11400000, guid: 01656b711215de2489ad039f36a4e3c3, type: 2}
  - m_RefCount: 1
    m_Data: {fileID: 11400000, guid: 00ca708ef8a09af43b5fe6f7a2606490, type: 2}
  - m_RefCount: 1
    m_Data: {fileID: 11400000, guid: c95536e2ac0d84c48aad2b9163f4991a, type: 2}
  - m_RefCount: 1
    m_Data: {fileID: 11400000, guid: 5226cef1e19c3d34db4a3909198e93ab, type: 2}
  - m_RefCount: 1
    m_Data: {fileID: 11400000, guid: 533c78a6f9888ff409ae337c6e27dd9d, type: 2}
  - m_RefCount: 1
    m_Data: {fileID: 11400000, guid: aed26af5da8bdda489cf5afc5213c76b, type: 2}
  - m_RefCount: 1
    m_Data: {fileID: 11400000, guid: 088b2f7312f205946b89ea7d57b838e8, type: 2}
  - m_RefCount: 1
    m_Data: {fileID: 11400000, guid: b4c4f5bfbf2503d4995ee4b3703c3824, type: 2}
  m_TileSpriteArray:
  - m_RefCount: 1
    m_Data: {fileID: 21300000, guid: 1233a40f50e1c954f981c56847233711, type: 3}
  - m_RefCount: 1
    m_Data: {fileID: -3357515910591759238, guid: 5ebcf8044dd0b5846a2886a5ff92a408, type: 3}
  - m_RefCount: 1
    m_Data: {fileID: 124453552786969483, guid: 5ebcf8044dd0b5846a2886a5ff92a408, type: 3}
  - m_RefCount: 1
    m_Data: {fileID: -568864715573125675, guid: 5ebcf8044dd0b5846a2886a5ff92a408, type: 3}
  - m_RefCount: 1
    m_Data: {fileID: 374688490947754656, guid: 5ebcf8044dd0b5846a2886a5ff92a408, type: 3}
  - m_RefCount: 1
    m_Data: {fileID: 8721707918184771119, guid: 5ebcf8044dd0b5846a2886a5ff92a408, type: 3}
  - m_RefCount: 1
    m_Data: {fileID: -5428507737112726026, guid: 5ebcf8044dd0b5846a2886a5ff92a408, type: 3}
  - m_RefCount: 1
    m_Data: {fileID: 4021284656184010451, guid: 5ebcf8044dd0b5846a2886a5ff92a408, type: 3}
  - m_RefCount: 1
    m_Data: {fileID: 4777146490511550170, guid: 5ebcf8044dd0b5846a2886a5ff92a408, type: 3}
  - m_RefCount: 1
    m_Data: {fileID: 3104076937310148729, guid: 5ebcf8044dd0b5846a2886a5ff92a408, type: 3}
  - m_RefCount: 1
    m_Data: {fileID: 7565696428887314959, guid: 5ebcf8044dd0b5846a2886a5ff92a408, type: 3}
  - m_RefCount: 1
    m_Data: {fileID: -5862157076625757123, guid: 5ebcf8044dd0b5846a2886a5ff92a408, type: 3}
  - m_RefCount: 1
    m_Data: {fileID: 289114549585270027, guid: 5ebcf8044dd0b5846a2886a5ff92a408, type: 3}
  - m_RefCount: 1
    m_Data: {fileID: 7622431064557552515, guid: 5ebcf8044dd0b5846a2886a5ff92a408, type: 3}
  - m_RefCount: 1
    m_Data: {fileID: -2276109588449258574, guid: 5ebcf8044dd0b5846a2886a5ff92a408, type: 3}
  - m_RefCount: 1
    m_Data: {fileID: -6414447125379547148, guid: 5ebcf8044dd0b5846a2886a5ff92a408, type: 3}
  - m_RefCount: 1
    m_Data: {fileID: -1693060807349068911, guid: 5ebcf8044dd0b5846a2886a5ff92a408, type: 3}
  - m_RefCount: 1
    m_Data: {fileID: 7799159119227759483, guid: a3d65814cc3e68545ab6a6b843a73908, type: 3}
  - m_RefCount: 2
    m_Data: {fileID: -2464266514383608195, guid: a3d65814cc3e68545ab6a6b843a73908, type: 3}
  - m_RefCount: 2
    m_Data: {fileID: 7323906098350758705, guid: a3d65814cc3e68545ab6a6b843a73908, type: 3}
  - m_RefCount: 1
    m_Data: {fileID: -5972448355421142556, guid: a3d65814cc3e68545ab6a6b843a73908, type: 3}
  - m_RefCount: 2
    m_Data: {fileID: -4977721373819348528, guid: a3d65814cc3e68545ab6a6b843a73908, type: 3}
  - m_RefCount: 2
    m_Data: {fileID: -3493280607249542649, guid: a3d65814cc3e68545ab6a6b843a73908, type: 3}
  - m_RefCount: 1
    m_Data: {fileID: 1958745200148787322, guid: a3d65814cc3e68545ab6a6b843a73908, type: 3}
  - m_RefCount: 1
    m_Data: {fileID: -2488111991826676060, guid: a3d65814cc3e68545ab6a6b843a73908, type: 3}
  - m_RefCount: 1
    m_Data: {fileID: -1236713991046615032, guid: a3d65814cc3e68545ab6a6b843a73908, type: 3}
  - m_RefCount: 1
    m_Data: {fileID: -3326836957996475874, guid: a3d65814cc3e68545ab6a6b843a73908, type: 3}
  - m_RefCount: 1
    m_Data: {fileID: -2755257858965140955, guid: a3d65814cc3e68545ab6a6b843a73908, type: 3}
  - m_RefCount: 1
    m_Data: {fileID: 6972465368094823745, guid: a3d65814cc3e68545ab6a6b843a73908, type: 3}
  - m_RefCount: 1
    m_Data: {fileID: -7832389824997676707, guid: a3d65814cc3e68545ab6a6b843a73908, type: 3}
  - m_RefCount: 1
    m_Data: {fileID: 2766323726693326924, guid: a3d65814cc3e68545ab6a6b843a73908, type: 3}
  - m_RefCount: 1
    m_Data: {fileID: -7671020578840251174, guid: a3d65814cc3e68545ab6a6b843a73908, type: 3}
  - m_RefCount: 1
    m_Data: {fileID: -1667590691872097069, guid: a3d65814cc3e68545ab6a6b843a73908, type: 3}
  - m_RefCount: 2
    m_Data: {fileID: -3503154757471595975, guid: a3d65814cc3e68545ab6a6b843a73908, type: 3}
  - m_RefCount: 1
    m_Data: {fileID: -7175372319361646676, guid: a3d65814cc3e68545ab6a6b843a73908, type: 3}
  - m_RefCount: 1
    m_Data: {fileID: -7647882774218309960, guid: a3d65814cc3e68545ab6a6b843a73908, type: 3}
  - m_RefCount: 1
    m_Data: {fileID: -3542295685721467227, guid: a3d65814cc3e68545ab6a6b843a73908, type: 3}
  - m_RefCount: 1
    m_Data: {fileID: -8076291029264883859, guid: a3d65814cc3e68545ab6a6b843a73908, type: 3}
  - m_RefCount: 1
    m_Data: {fileID: -3487811798477773700, guid: a3d65814cc3e68545ab6a6b843a73908, type: 3}
  - m_RefCount: 1
    m_Data: {fileID: -5134054752372163016, guid: a3d65814cc3e68545ab6a6b843a73908, type: 3}
  - m_RefCount: 1
    m_Data: {fileID: 6192572789505845407, guid: a3d65814cc3e68545ab6a6b843a73908, type: 3}
  - m_RefCount: 1
    m_Data: {fileID: 7953296568139915108, guid: a3d65814cc3e68545ab6a6b843a73908, type: 3}
  - m_RefCount: 1
    m_Data: {fileID: 3803662930465603148, guid: a3d65814cc3e68545ab6a6b843a73908, type: 3}
  - m_RefCount: 1
    m_Data: {fileID: -1076426586580465502, guid: a3d65814cc3e68545ab6a6b843a73908, type: 3}
  - m_RefCount: 1
    m_Data: {fileID: -5576478142290952502, guid: a3d65814cc3e68545ab6a6b843a73908, type: 3}
  - m_RefCount: 1
    m_Data: {fileID: 3747544219709766277, guid: a3d65814cc3e68545ab6a6b843a73908, type: 3}
  - m_RefCount: 1
    m_Data: {fileID: -4897907173415269231, guid: a3d65814cc3e68545ab6a6b843a73908, type: 3}
  - m_RefCount: 1
    m_Data: {fileID: 21300000, guid: 6e50ed529c10eb446b5af84479470d3c, type: 3}
  m_TileMatrixArray:
  - m_RefCount: 49
    m_Data:
      e00: 1
      e01: 0
      e02: 0
      e03: 0
      e10: 0
      e11: 1
      e12: 0
      e13: 0
      e20: 0
      e21: 0
      e22: 1
      e23: 0
      e30: 0
      e31: 0
      e32: 0
      e33: 1
  - m_RefCount: 4
    m_Data:
      e00: -1
      e01: 0
      e02: 0
      e03: 0
      e10: -0
      e11: 1
      e12: 0
      e13: 0
      e20: -0
      e21: 0
      e22: 1
      e23: 0
      e30: 0
      e31: 0
      e32: 0
      e33: 1
  m_TileColorArray:
  - m_RefCount: 53
    m_Data: {r: 1, g: 1, b: 1, a: 1}
  m_TileObjectToInstantiateArray: []
  m_AnimationFrameRate: 1
  m_Color: {r: 1, g: 1, b: 1, a: 1}
  m_Origin: {x: -2, y: -9, z: 0}
  m_Size: {x: 10, y: 11, z: 1}
  m_TileAnchor: {x: 0.5, y: 0.5, z: 0}
  m_TileOrientation: 0
  m_TileOrientationMatrix:
    e00: 1
    e01: 0
    e02: 0
    e03: 0
    e10: 0
    e11: 1
    e12: 0
    e13: 0
    e20: 0
    e21: 0
    e22: 1
    e23: 0
    e30: 0
    e31: 0
    e32: 0
    e33: 1
--- !u!483693784 &4640444208399360175
TilemapRenderer:
  m_ObjectHideFlags: 0
  m_CorrespondingSourceObject: {fileID: 0}
  m_PrefabInstance: {fileID: 0}
  m_PrefabAsset: {fileID: 0}
  m_GameObject: {fileID: 166341173157435468}
  m_Enabled: 1
  m_CastShadows: 0
  m_ReceiveShadows: 0
  m_DynamicOccludee: 0
  m_MotionVectors: 1
  m_LightProbeUsage: 0
  m_ReflectionProbeUsage: 0
  m_RayTracingMode: 0
  m_RayTraceProcedural: 0
  m_RenderingLayerMask: 1
  m_RendererPriority: 0
  m_Materials:
  - {fileID: 10754, guid: 0000000000000000f000000000000000, type: 0}
  m_StaticBatchInfo:
    firstSubMesh: 0
    subMeshCount: 0
  m_StaticBatchRoot: {fileID: 0}
  m_ProbeAnchor: {fileID: 0}
  m_LightProbeVolumeOverride: {fileID: 0}
  m_ScaleInLightmap: 1
  m_ReceiveGI: 1
  m_PreserveUVs: 0
  m_IgnoreNormalsForChartDetection: 0
  m_ImportantGI: 0
  m_StitchLightmapSeams: 1
  m_SelectedEditorRenderState: 0
  m_MinimumChartSize: 4
  m_AutoUVMaxDistance: 0.5
  m_AutoUVMaxAngle: 89
  m_LightmapParameters: {fileID: 0}
  m_SortingLayerID: 0
  m_SortingLayer: 0
  m_SortingOrder: 0
  m_ChunkSize: {x: 32, y: 32, z: 32}
  m_ChunkCullingBounds: {x: 0.016129017, y: 0.016129017, z: 0}
  m_MaxChunkCount: 16
  m_MaxFrameAge: 16
  m_SortOrder: 0
  m_Mode: 0
  m_DetectChunkCullingBounds: 0
  m_MaskInteraction: 0
--- !u!1 &2910402781824705321
GameObject:
  m_ObjectHideFlags: 0
  m_CorrespondingSourceObject: {fileID: 0}
  m_PrefabInstance: {fileID: 0}
  m_PrefabAsset: {fileID: 0}
  serializedVersion: 6
  m_Component:
  - component: {fileID: 4889358044749556022}
  - component: {fileID: 3041220380022622870}
  m_Layer: 31
  m_Name: Main palette
  m_TagString: Untagged
  m_Icon: {fileID: 0}
  m_NavMeshLayer: 0
  m_StaticEditorFlags: 0
  m_IsActive: 1
--- !u!4 &4889358044749556022
Transform:
  m_ObjectHideFlags: 0
  m_CorrespondingSourceObject: {fileID: 0}
  m_PrefabInstance: {fileID: 0}
  m_PrefabAsset: {fileID: 0}
  m_GameObject: {fileID: 2910402781824705321}
  m_LocalRotation: {x: 0, y: 0, z: 0, w: 1}
  m_LocalPosition: {x: 0, y: 0, z: 0}
  m_LocalScale: {x: 1, y: 1, z: 1}
  m_Children:
  - {fileID: 7423773496893228325}
  m_Father: {fileID: 0}
  m_RootOrder: 0
  m_LocalEulerAnglesHint: {x: 0, y: 0, z: 0}
--- !u!156049354 &3041220380022622870
Grid:
  m_ObjectHideFlags: 0
  m_CorrespondingSourceObject: {fileID: 0}
  m_PrefabInstance: {fileID: 0}
  m_PrefabAsset: {fileID: 0}
  m_GameObject: {fileID: 2910402781824705321}
  m_Enabled: 1
  m_CellSize: {x: 1.032258, y: 1.032258, z: 0}
  m_CellGap: {x: 0, y: 0, z: 0}
  m_CellLayout: 0
  m_CellSwizzle: 0
--- !u!114 &9192488073464946918
MonoBehaviour:
  m_ObjectHideFlags: 0
  m_CorrespondingSourceObject: {fileID: 0}
  m_PrefabInstance: {fileID: 0}
  m_PrefabAsset: {fileID: 0}
  m_GameObject: {fileID: 0}
  m_Enabled: 1
  m_EditorHideFlags: 0
  m_Script: {fileID: 12395, guid: 0000000000000000e000000000000000, type: 0}
  m_Name: Palette Settings
  m_EditorClassIdentifier: 
  cellSizing: 0
  m_TransparencySortMode: 0
  m_TransparencySortAxis: {x: 0, y: 0, z: 1}
